<svg xmlns="http://www.w3.org/2000/svg" xmlns:xlink="http://www.w3.org/1999/xlink" width="56" height="56" viewBox="0 0 56 56">
  <defs>
    <radialGradient id="radial-gradient" cx="0.5" cy="0.5" r="0.5" gradientUnits="objectBoundingBox">
      <stop offset="0" stop-color="#8bae27"/>
      <stop offset="1" stop-color="#1b9a50"/>
    </radialGradient>
  </defs>
  <g id="ic-check-medium" transform="translate(0.333 0.333)">
    <g id="Group_821" data-name="Group 821">
      <circle id="Ellipse_111" data-name="Ellipse 111" cx="28" cy="28" r="28" transform="translate(-0.333 -0.333)" fill="url(#radial-gradient)"/>
    </g>
    <g id="Group_822" data-name="Group 822" transform="translate(10.638 17.194)">
      <path id="Path_155" data-name="Path 155" d="M37.439,64.609,24.63,51.8a.42.42,0,0,1,0-.608L28.321,47.5a.42.42,0,0,1,.608,0l8.814,8.814L54.329,39.73a.42.42,0,0,1,.608,0l3.691,3.691a.42.42,0,0,1,0,.608l-20.58,20.58A.42.42,0,0,1,37.439,64.609Z" transform="translate(-24.5 -39.6)" fill="#fff"/>
    </g>
  </g>
</svg>
